…
## ANALISE DIARIA


``` r
# transformando para o formato tsibble
serie_diaria <- df_cli %>%
  mutate(date = as_date(date)) %>%
  as_tsibble(index = date)

serie_diaria
```

```
## # A tsibble: 1,462 x 5 [1D]
##    date       meantemp humidity wind_speed meanpressure
##    <date>        <dbl>    <dbl>      <dbl>        <dbl>
##  1 2013-01-01    10        84.5       0           1016.
##  2 2013-01-02     7.4      92         2.98        1018.
##  3 2013-01-03     7.17     87         4.63        1019.
##  4 2013-01-04     8.67     71.3       1.23        1017.
##  5 2013-01-05     6        86.8       3.7         1016.
##  6 2013-01-06     7        82.8       1.48        1018 
##  7 2013-01-07     7        78.6       6.3         1020 
##  8 2013-01-08     8.86     63.7       7.14        1019.
##  9 2013-01-09    14        51.2      12.5         1017 
## 10 2013-01-10    11        62         7.4         1016.
## # ℹ 1,452 more rows
```
…
serie_mensal
```

```
## # A tsibble: 49 x 5 [1M]
##     mes_ano humidity meanpressure meantemp wind_speed
##       <mth>    <dbl>        <dbl>    <dbl>      <dbl>
##  1 2013 jan     73.0        1018.     12.1       4.83
##  2 2013 fev     71.9        1016.     16.9       7.47
##  3 2013 mar     57.4        1012.     22.8       8.76
##  4 2013 abr     34.6        1006.     28.9       8.05
##  5 2013 mai     28.9        1000.     33.8       8.94
##  6 2013 jun     58.8         997.     32.5       9.59
##  7 2013 jul     74.9         997.     30.7       7.36
##  8 2013 ago     76.8        1000.     29.5       7.38
##  9 2013 set     64.6        1004.     29.8       7.59
## 10 2013 out     70.3        1010.     26.1       2.84
## # ℹ 39 more rows
```
…
